今年使ったツールを振り返る – Yosuke Abe
…
Rのメモリに読み込まずにデータを読み込めるため、大規模データの処理にも向いています。

library(DBI)
library(dplyr)

# DuckDBに接続
con <- dbConnect(duckdb::duckdb())

# Rのメモリに読み込まずにCSVをクエリ可能
tbl(con, "read_csv('data/iris.csv')") |>
  filter(Species == "setosa") |>
  collect()

# A tibble: 50 × 5
   Sepal.Length Sepal.Width Petal.Length Petal.Width Species
          <dbl>       <dbl>        <dbl>       <dbl> <chr>  
 1          5.1         3.5          1.4         0.2 setosa 
 2          4.9         3            1.4         0.2 setosa 
 3          4.7         3.2          1.3         0.2 setosa 
 4          4.6         3.1          1.5         0.2 setosa 
 5          5           3.6          1.4         0.2 setosa 
 6          5.4         3.9          1.7         0.4 setosa 
 7          4.6         3.4          1.4         0.3 setosa 
 8          5           3.4          1.5         0.2 setosa 
 9          4.4         2.9          1.4         0.2 setosa 
10          4.9         3.1          1.5         0.1 setosa 
# ℹ 40 more rows
…
