e-Stat APIを使ってデータを取得しよう – Yosuke Abe
…
# データがあるノードをすべて取得
value_nodes <- xml_find_all(xml_data, "//DATA_INF/VALUE")

df <- tibble(
  # xml_attr()で特定の属性を取得
  area = xml_attr(value_nodes, "area"),
  time = xml_attr(value_nodes, "time"),
  category = xml_attr(value_nodes, "cat01"),
  # valueはテキストとして取得したのち数値に変換
  value = as.numeric(xml_text(value_nodes))
)

print(df)

# A tibble: 12,258 × 4
   area  time       category     value
   <chr> <chr>      <chr>        <dbl>
 1 00000 2020000000 0        126146099
 2 01000 2020000000 0          5224614
 3 01100 2020000000 0          1973395
 4 01101 2020000000 0           248680
 5 01102 2020000000 0           289323
 6 01103 2020000000 0           265379
 7 01104 2020000000 0           211835
 8 01105 2020000000 0           225298
 9 01106 2020000000 0           135777
10 01107 2020000000 0           217040
# ℹ 12,248 more rows
…
print(df_cleaned)

# A tibble: 12,258 × 4
   area   time category       value
   <chr> <int> <chr>          <dbl>
 1 00000  2020 population 126146099
 2 00000  2020 pop_male    61349581
 3 00000  2020 pop_female  64796518
 4 01000  2020 population   5224614
 5 01000  2020 pop_male     2465088
 6 01000  2020 pop_female   2759526
 7 01100  2020 population   1973395
 8 01100  2020 pop_male      918682
 9 01100  2020 pop_female   1054713
10 01101  2020 population    248680
# ℹ 12,248 more rows

もしカテゴリの各種をそれぞれ列にしたければpivot_wider()でできます。

df_wide <- df_cleaned |>
  pivot_wider(
    names_from = category,
    values_from = value
  )

print(df_wide)

# A tibble: 4,086 × 5
   area   time population pop_male pop_female
   <chr> <int>      <dbl>    <dbl>      <dbl>
 1 00000  2020  126146099 61349581   64796518
 2 01000  2020    5224614  2465088    2759526
 3 01100  2020    1973395   918682    1054713
 4 01101  2020     248680   112853     135827
 5 01102  2020     289323   136596     152727
 6 01103  2020     265379   126023     139356
 7 01104  2020     211835   100062     111773
 8 01105  2020     225298   104154     121144
 9 01106  2020     135777    62347      73430
10 01107  2020     217040   100027     117013
# ℹ 4,076 more rows
…
